\begin{tikzpicture}
	\begin{pgfonlayer}{nodelayer}
		\node [style=gn] (103) at (-2.25, 0.25) {\scriptsize$\varphi$};
		\node [style=none] (104) at (-2.75, 0.5) {};
		\node [style=none] (105) at (-2.75, 0) {};
		\node [style=none] (106) at (-3, 0.5) {};
		\node [style=none] (107) at (-3, 0) {};
		\node [style=none] (108) at (-1.75, 0.5) {};
		\node [style=none] (109) at (-1.75, 0) {};
		\node [style=gn] (110) at (-1.25, -0.25) {\scriptsize$\theta$};
		\node [style=none] (111) at (-1.75, 0) {};
		\node [style=none] (112) at (-1.75, -0.5) {};
		\node [style=none] (113) at (-0.75, 0) {};
		\node [style=none] (114) at (-0.75, -0.5) {};
		\node [style=none] (115) at (-0.5, 0) {};
		\node [style=none] (116) at (-0.5, -0.5) {};
		\node [style=none] (117) at (0, 0) {$=$};
		\node [style=gn] (118) at (1.5, 0) {\scriptsize$\varphi+\theta$};
		\node [style=none] (119) at (0.75, 0.5) {};
		\node [style=none] (120) at (0.75, -0.5) {};
		\node [style=none] (121) at (0.5, 0.5) {};
		\node [style=none] (122) at (0.5, -0.5) {};
		\node [style=none] (123) at (2.25, 0.5) {};
		\node [style=none] (124) at (2.25, -0.5) {};
		\node [style=none] (125) at (2.25, 0.5) {};
		\node [style=none] (126) at (2.25, -0.5) {};
		\node [style=none] (127) at (-0.5, 0.5) {};
		\node [style=none] (128) at (-3, -0.5) {};
		\node [style=none] (129) at (2.5, 0.5) {};
		\node [style=none] (130) at (2.5, -0.5) {};
		\node [style=none] (131) at (0.75, 0) {};
		\node [style=none] (132) at (0.5, 0) {};
		\node [style=none] (133) at (2.25, 0) {};
		\node [style=none] (134) at (2.25, 0) {};
		\node [style=none] (135) at (2.5, 0) {};
		\node [style=none] (136) at (-2.75, -0.5) {};
		\node [style=none] (137) at (-0.75, 0.5) {};
	\end{pgfonlayer}
	\begin{pgfonlayer}{edgelayer}
		\draw [in=135, out=0] (104.center) to (103);
		\draw (106.center) to (104.center);
		\draw (107.center) to (105.center);
		\draw [style=dotted] (104.center) to (105.center);
		\draw [in=-135, out=0] (105.center) to (103);
		\draw [in=45, out=180] (108.center) to (103);
		\draw [in=-180, out=-45] (103) to (109.center);
		\draw [style=dotted] (108.center) to (109.center);
		\draw [in=135, out=0] (111.center) to (110);
		\draw [in=-135, out=0] (112.center) to (110);
		\draw [in=45, out=180] (113.center) to (110);
		\draw [in=-180, out=-45] (110) to (114.center);
		\draw [style=dotted] (113.center) to (114.center);
		\draw (113.center) to (115.center);
		\draw (114.center) to (116.center);
		\draw [in=135, out=0] (119.center) to (118);
		\draw (121.center) to (119.center);
		\draw (122.center) to (120.center);
		\draw [style=dotted] (119.center) to (120.center);
		\draw [in=-135, out=0] (120.center) to (118);
		\draw [in=45, out=180] (123.center) to (118);
		\draw [in=-180, out=-45] (118) to (124.center);
		\draw [style=dotted] (123.center) to (124.center);
		\draw (108.center) to (127.center);
		\draw (128.center) to (112.center);
		\draw (125.center) to (129.center);
		\draw (126.center) to (130.center);
		\draw (132.center) to (131.center);
		\draw (134.center) to (135.center);
		\draw (131.center) to (118);
		\draw (118) to (134.center);
		\draw [style=dotted] (137.center) to (113.center);
		\draw [style=dotted] (112.center) to (111.center);
		\draw [style=dotted] (136.center) to (105.center);
	\end{pgfonlayer}
\end{tikzpicture}
