\begin{tikzpicture}
	\begin{pgfonlayer}{nodelayer}
		\node [style=box] (2) at (-5.5, 0) {$f$};
		\node [style=box] (3) at (-5, 0) {$g$};
		\node [style=none] (10) at (-6, 0) {};
		\node [style=none] (12) at (-4.5, 0) {};
	\end{pgfonlayer}
	\begin{pgfonlayer}{edgelayer}
		\draw (10.center) to (2);
		\draw (3) to (12.center);
		\draw (2) to (3);
	\end{pgfonlayer}
\end{tikzpicture}
